module gitlab.com/Vyacha/project

go 1.17

require (
	github.com/essentialkaos/translit/v2 v2.0.4 // indirect
	github.com/goombaio/namegenerator v0.0.0-20181006234301-989e774b106e // indirect
	gitlab.com/stud777/stuff v1.3.0 // indirect
)
